,s,x,y,target
0,308,14.60267,6.104752,7.0
1,756,12.703365,7.6482344,5.0
2,387,12.498993,7.360023,6.0
3,4521,12.854888,7.309738,4.0
4,2529,13.332296,4.981179,2.0
5,2367,12.40207,6.61893,1.0
6,1346,16.687395,7.3966455,5.0
7,1099,13.983343,5.518754,6.0
8,3508,14.097852,4.9121127,0.0
9,497,15.791775,6.494404,5.0
10,3251,15.7628765,8.038342,0.0
11,294,16.075363,6.54277,4.0
12,3744,16.45505,8.111954,1.0
13,990,16.04884,7.6980934,2.0
14,352,13.360058,6.961621,4.0
15,1024,14.506505,6.4165115,6.0
16,2726,14.039795,5.1869802,0.0
17,147,15.546167,7.6737814,4.0
18,3040,12.476434,6.4058647,1.0
19,3585,14.976793,6.700994,0.0
20,707,13.288009,6.397774,6.0
21,701,12.92683,6.016395,6.0
22,4431,13.684359,5.061151,0.0
23,4271,15.178489,7.136297,0.0
24,3760,14.735919,7.8848667,0.0
25,3733,14.811291,5.920867,4.0
26,1980,12.997367,7.2429585,4.0
27,2080,15.088912,8.084153,3.0
28,3887,14.251234,7.729709,9.0
29,1079,16.410862,7.8051305,0.0
30,4617,16.435526,7.491178,7.0
31,2422,13.653148,5.5481696,0.0
32,4443,14.658618,7.7387066,0.0
33,1776,15.502994,6.241654,10.0
34,2783,13.171849,5.342701,2.0
35,1276,16.105688,6.9916477,1.0
36,3291,15.594261,7.1281514,0.0
37,695,13.085593,5.8502426,6.0
38,3027,13.674001,4.9054294,0.0
39,2460,15.971665,8.15226,0.0
40,3960,15.376737,6.5698376,4.0
41,1058,16.275772,7.9330015,5.0
42,3835,15.680356,8.165295,4.0
43,524,16.373133,6.852949,6.0
44,1227,15.896523,7.5303164,4.0
45,847,12.843467,6.8817368,9.0
46,512,13.445287,5.559651,4.0
47,3876,12.547305,6.9999084,0.0
48,3999,14.909429,7.3273845,0.0
49,1073,12.971466,6.538308,8.0
